<?xml version="1.0" encoding="utf-8"?>
<!-- Generator: Adobe Illustrator 18.1.1, SVG Export Plug-In . SVG Version: 6.00 Build 0)  -->
<svg version="1.1" xmlns="http://www.w3.org/2000/svg" xmlns:xlink="http://www.w3.org/1999/xlink" x="0px" y="0px"
	 viewBox="0 0 32.9 33.6" xml:space="preserve">
<path fill="#f2f2f2" d="M19.6,0C12.2,0,6.3,5.9,6.3,13.3c0,3.3,1.2,6.3,3.2,8.6L0,31.5l2.2,2.2l9.6-9.6c2.2,1.6,4.9,2.6,7.8,2.6
	c7.3,0,13.3-5.9,13.3-13.3S26.9,0,19.6,0z M19.6,25.3c-6.6,0-12-5.4-12-12c0-6.6,5.4-12,12-12c6.6,0,12,5.4,12,12
	C31.6,19.9,26.2,25.3,19.6,25.3z"/>
</svg>
